_unit_id,_golden,_unit_state,_trusted_judgments,_last_judgment_at,eachcause,eachcause:confidence,eacheffect,eacheffect:confidence,feel_free_to_give_feedback_for_this_question,is_this_sentence_an_example_of_cause_and_effect,is_this_sentence_an_example_of_cause_and_effect:confidence,choices,eachcause_gold,eacheffect_gold,feel_free_to_give_feedback_for_this_question_gold,is_this_sentence_an_example_of_cause_and_effect_gold,sentence
1175268571,false,finalized,3,3/8/2017 05:13:05,to,1.0,returned,1.0,"

",yes,1.0,"But,
at
27,
her
depression
returned
after
she
gave
birth
to
her
son.",,,,,"But, at 27, her depression returned after she gave birth to her son."
1175268572,false,finalized,3,3/8/2017 04:31:49,wine,1.0,trouble,1.0,"

",yes,1.0,"At
Italian
Wine
Merchants,
public
wine
tastings
became
so
popular
in
2001
that
Mr.
Esposito
had
trouble
speaking
above
the
din.",,,,,"At Italian Wine Merchants, public wine tastings became so popular in 2001 that Mr. Esposito had trouble speaking above the din."
1175268573,false,finalized,3,3/8/2017 04:31:49,depression,1.0,death,1.0,"

",yes,1.0,"And
for
people
who
already
have
well-documented
heart
disease,
depression
increases
the
risk
of
death
about
threefold.",,,,,"And for people who already have well-documented heart disease, depression increases the risk of death about threefold."
1175268574,false,finalized,3,3/8/2017 04:24:38,"death,",1.0,depression,1.0,"

",yes,1.0,"After
Mr.
Dukes's
death,
Ms.
Francis
slipped
into
depression
and,
with
less
income,
fell
behind
on
the
rent.",,,,,"After Mr. Dukes's death, Ms. Francis slipped into depression and, with less income, fell behind on the rent."
1175268575,false,finalized,3,3/8/2017 05:13:05,turmoil.,1.0,trip,1.0,"

",yes,1.0,"The
trip
is
still
tentative
because
of
the
continuing
turmoil.",,,,,The trip is still tentative because of the continuing turmoil.
1175268576,false,finalized,3,3/8/2017 04:31:49,to,0.6667,recovery.,1.0,"

",yes,1.0,"The
doctors
who
put
together
the
College
of
Sports
Medicine
consensus
statement
also
said
that
common
emotional
reactions
to
injury
--
like
loss
of
identity,
fear,
anxiety
and
depression
--
could
affect
a
player's
recovery.",,,,,"The doctors who put together the College of Sports Medicine consensus statement also said that common emotional reactions to injury -- like loss of identity, fear, anxiety and depression -- could affect a player's recovery."
1175268577,false,finalized,3,3/8/2017 04:28:07,clamor,1.0,results.,1.0,"
NA
",yes,1.0,"Eventually
the
clamor
brought
results.",,,,,Eventually the clamor brought results.
1175268578,false,finalized,3,3/8/2017 04:24:38,reliability.'',1.0,risk,1.0,"

",yes,1.0,"In
2003
and
2004,
managers
said
the
refinery
in
Texas
City
was
at
risk
because
of
''infrastructure
integrity
and
mechanical
reliability.''",,,,,"In 2003 and 2004, managers said the refinery in Texas City was at risk because of ''infrastructure integrity and mechanical reliability.''"
1175268579,false,finalized,3,3/8/2017 05:13:05,locker-room,1.0,"turmoil,",1.0,"

",yes,1.0,"Asked
why
the
Patriots
rarely
have
locker-room
turmoil,
Seymour
cited
the
locker-room
leadership.",,,,,"Asked why the Patriots rarely have locker-room turmoil, Seymour cited the locker-room leadership."
1175268580,false,finalized,3,3/8/2017 04:28:07,the,2.0,dismissals.,1.0,"
NA
",yes,1.0,"Her
attempts
to
gently
raise
the
subject
of
the
future
lead
only
to
brusque
dismissals.",,,,,Her attempts to gently raise the subject of the future lead only to brusque dismissals.
1175268581,false,finalized,3,3/8/2017 04:56:42,to,0.6471,the,0.7059,"

",yes,1.0,"In
addition,
the
law
would
discourage
executives
who
receive
restricted
share
units
of
their
companies'
stock
from
holding
onto
the
stakes,
eliminating
an
incentive
for
managers
to
align
their
interests
with
those
of
shareholders.",,,,,"In addition, the law would discourage executives who receive restricted share units of their companies' stock from holding onto the stakes, eliminating an incentive for managers to align their interests with those of shareholders."
1175268582,false,finalized,3,3/8/2017 04:24:38,,,,,"

",no,1.0,"Gaza
and
neighboring
Lebanon
are
in
turmoil.",,,,,Gaza and neighboring Lebanon are in turmoil.
1175268583,false,finalized,3,3/8/2017 04:31:49,,,,,"

",no,1.0,"The
next
assignment
was
to
pay
a
gratitude
visit
or
write
a
gratitude
letter.",,,,,The next assignment was to pay a gratitude visit or write a gratitude letter.
1175268584,false,finalized,3,3/8/2017 04:28:07,,,,,"
NA
",no,1.0,"Each
day
of
his
chronicle
he
notes
with
gratitude
the
lengthening
hours
of
daylight.",,,,,Each day of his chronicle he notes with gratitude the lengthening hours of daylight.
1175268585,false,finalized,3,3/8/2017 04:56:42,,,,,"

",no,1.0,"Irv
loved
children
and
nature;
he
valued
passion,
integrity
and
family.",,,,,"Irv loved children and nature; he valued passion, integrity and family."
1175268586,false,finalized,3,3/8/2017 04:24:38,,,,,"

",no,1.0,"There
is
an
art
to
the
alchemy
of
flavor
infusion,
an
art
we
explore
with
mystery
and
integrity.''",,,,,"There is an art to the alchemy of flavor infusion, an art we explore with mystery and integrity.''"
1175268587,false,finalized,3,3/8/2017 04:28:07,,,,,"

",no,1.0,"The
''election''
did
not
count,
but
80,000
''voters''
vividly
demonstrated
blacks'
electoral
clout.",,,,,"The ''election'' did not count, but 80,000 ''voters'' vividly demonstrated blacks' electoral clout."
1175268588,false,finalized,3,3/8/2017 04:56:42,,,,,"

",no,1.0,"Workers
frequently
toil
outdoors
in
freezing
temperatures.",,,,,Workers frequently toil outdoors in freezing temperatures.
1175268589,false,finalized,3,3/8/2017 05:13:05,,,,,"

",no,1.0,"Ms.
Rihtar,
a
70-year-old
storekeeper,
has
little
nostalgia
for
any
of
them
today.",,,,,"Ms. Rihtar, a 70-year-old storekeeper, has little nostalgia for any of them today."
1175268590,false,finalized,3,3/8/2017 04:56:42,,,,,"

",no,1.0,"Mr.
Ballmer
and
Mr.
Gates
have
shared
one
of
the
most
enduring
and
lucrative
partnerships
in
American
business
over
the
years.",,,,,Mr. Ballmer and Mr. Gates have shared one of the most enduring and lucrative partnerships in American business over the years.
1175268591,true,golden,22,"","fear,",0.5649,recovery.,0.8818,"


NA







Reaction to the emotions cause effects in the recovery






Cause injury, result fear and depression


",yes,0.9212,"The
doctors
who
put
together
the
College
of
Sports
Medicine
consensus
statement
also
said
that
common
emotional
reactions
to
injury
--
like
loss
of
identity,
fear,
anxiety
and
depression
--
could
affect
a
player's
recovery.","common
emotional
reactions
to
injury
like
loss
of
identity,
fear,
anxiety
and
depression","could
affect
a
player's
recovery.",,yes,"The doctors who put together the College of Sports Medicine consensus statement also said that common emotional reactions to injury -- like loss of identity, fear, anxiety and depression -- could affect a player's recovery."
1175268592,true,golden,32,"",clamor,0.8914,results.,0.8914,"NA


Good



























",yes,0.8914,"Eventually
the
clamor
brought
results.",clamor,results.,,yes,Eventually the clamor brought results.
1175268593,true,golden,27,"",,0,,0,"















Just add more information









",no,0.9287,"There
is
an
art
to
the
alchemy
of
flavor
infusion,
an
art
we
explore
with
mystery
and
integrity.''",,,,no,"There is an art to the alchemy of flavor infusion, an art we explore with mystery and integrity.''"
1175268594,true,golden,28,"",,0,,0,"

NA

NO relation












one attitude about her.





Have no relation.



",no,0.9639,"Ms.
Rihtar,
a
70-year-old
storekeeper,
has
little
nostalgia
for
any
of
them
today.",,,,no,"Ms. Rihtar, a 70-year-old storekeeper, has little nostalgia for any of them today."
1175268595,true,golden,31,"",,,,,"





No no relation













One fact. Nothing casual









",no,1.0,"Gaza
and
neighboring
Lebanon
are
in
turmoil.",,,,no,Gaza and neighboring Lebanon are in turmoil.
1175268596,true,golden,28,"",depression,0.8175,death,0.7722,"



NA

Good




















Have no relation.",yes,0.9638,"And
for
people
who
already
have
well-documented
heart
disease,
depression
increases
the
risk
of
death
about
threefold.","well-documented
heart
disease,
depression","increases
the
risk
of
death
about
threefold.",,yes,"And for people who already have well-documented heart disease, depression increases the risk of death about threefold."
1175268597,true,golden,21,"",leadership.,0.5982,locker-room,0.5856,"



Good


NA












",yes,0.8252,"Asked
why
the
Patriots
rarely
have
locker-room
turmoil,
Seymour
cited
the
locker-room
leadership.","locker-room
leadership.","rarely
have
locker-room
turmoil,",,yes,"Asked why the Patriots rarely have locker-room turmoil, Seymour cited the locker-room leadership."
1175268598,true,golden,30,"",the,1.2321,dismissals.,0.9642,"



NA











subject who cares to dispose less work












",yes,0.9642,"Her
attempts
to
gently
raise
the
subject
of
the
future
lead
only
to
brusque
dismissals.","attempts
to
gently
raise
the
subject
of
the
future","brusque
dismissals.",,yes,Her attempts to gently raise the subject of the future lead only to brusque dismissals.
